<svg xmlns="http://www.w3.org/2000/svg" xmlns:xlink="http://www.w3.org/1999/xlink" width="508" height="268" viewBox="0 0 508 268">
    <defs>
        <linearGradient id="a" x1="50%" x2="50%" y1="-30.584%" y2="100%">
            <stop offset="0%" stop-color="#D4EDFF"/>
            <stop offset="100%" stop-color="#5098E0"/>
        </linearGradient>
        <linearGradient id="b" x1="78.346%" x2="37.204%" y1="102.183%" y2="0%">
            <stop offset="0%" stop-color="#092F97"/>
            <stop offset="100%" stop-color="#3F9CFF"/>
        </linearGradient>
        <linearGradient id="c" x1="84.454%" x2="34.267%" y1="140.984%" y2="-15.651%">
            <stop offset="0%" stop-color="#092F97"/>
            <stop offset="100%" stop-color="#007CFF"/>
        </linearGradient>
        <linearGradient id="d" x1="-197.371%" x2="179.678%" y1="-240.404%" y2="250.094%">
            <stop offset="0%" stop-color="#80F0FF"/>
            <stop offset="100%" stop-color="#007CFF"/>
        </linearGradient>
        <linearGradient id="e" x1="50%" x2="50%" y1="0%" y2="100%">
            <stop offset="0%" stop-color="#FFF"/>
            <stop offset="100%" stop-color="#D4EDFF"/>
        </linearGradient>
        <linearGradient id="f" x1="50%" x2="50%" y1="12.17%" y2="87.219%">
            <stop offset="0%" stop-color="#D4EDFF"/>
            <stop offset="100%" stop-color="#5098E0"/>
        </linearGradient>
        <linearGradient id="g" x1="101.25%" x2="0%" y1="100%" y2="0%">
            <stop offset="0%" stop-color="#001B8A"/>
            <stop offset="47.525%" stop-color="#003CC1"/>
            <stop offset="100%" stop-color="#2A90FF"/>
        </linearGradient>
        <linearGradient id="h" x1="0%" y1="2.985%" y2="100%">
            <stop offset="0%" stop-color="#007CFF"/>
            <stop offset="100%" stop-color="#001B8A"/>
        </linearGradient>
        <linearGradient id="i" x1="50%" x2="51.9%" y1="-17.057%" y2="73.675%">
            <stop offset="0%" stop-color="#FFF"/>
            <stop offset="100%" stop-color="#B9E2FF"/>
        </linearGradient>
        <linearGradient id="j" x1="95.161%" x2="0%" y1=".151%" y2=".151%">
            <stop offset="0%" stop-color="#001B8A"/>
            <stop offset="47.525%" stop-color="#003CC1"/>
            <stop offset="100%" stop-color="#2662CF"/>
        </linearGradient>
        <linearGradient id="k" x1="18.26%" x2="82.604%" y1="25%" y2="25%">
            <stop offset="0%" stop-color="#80F0FF"/>
            <stop offset="100%" stop-color="#007CFF"/>
        </linearGradient>
        <linearGradient id="l" x1="49.994%" x2="49.994%" y1="2.388%" y2="85.025%">
            <stop offset="0%" stop-color="#2A90FF"/>
            <stop offset="16%" stop-color="#1D6DCC"/>
            <stop offset="67%" stop-color="#04A"/>
        </linearGradient>
        <linearGradient id="m" x1="47.984%" x2="47.984%" y1="100%" y2="34.241%">
            <stop offset="0%" stop-color="#001B8A"/>
            <stop offset="47.525%" stop-color="#003CC1"/>
            <stop offset="100%" stop-color="#2A90FF"/>
        </linearGradient>
        <path id="n" d="M0 .217h49.695V7H0z"/>
        <linearGradient id="p" x1="50%" x2="50%" y1="0%" y2="100%">
            <stop offset="0%" stop-color="#F5515F"/>
            <stop offset="100%" stop-color="#9F041B"/>
        </linearGradient>
    </defs>
    <g fill="none" fill-rule="evenodd">
        <path fill="#006FE6" d="M25.617 195.694c-.122-5.486.163-23.674 16.308-41.391 15.052-16.519 38.426-18.703 47.172-13.832-6.672-9.896-4.376-34.059 7.579-50.404 19.257-26.329 45.704-21.878 52.373-20.963.27-2.889 1.433-10.479 6.387-18.838 5.678-9.588 17.642-21.98 42.382-26.579 27.605-5.13 45.757 2.41 56.125 9.636 9.154 6.38 13.946 13.495 15.53 16.156 5.224-3.888 31.32-21.29 59.78-4.629 12.817 7.504 19.827 17.665 23.626 27.128a27.233 27.233 0 0 1 21.99 2.523s26.934-11.207 42.894 12.816c15.962 24.023 2.914 43.896 2.914 43.896s22.184.626 41.1 23.944C489.457 189.28 477.375 224 477.375 224H1.028C.46 224 0 223.512 0 222.91c0-20.94 20.905-26.28 25.617-27.216"/>
        <path fill="url(#a)" d="M47.47 174.816c15.746-7.889 29.731 4.448 29.731 4.448s.83-11.274 12.47-14.375c11.641-3.102 17.242 6.454 17.242 6.454s-6.163-30.833 19.59-47.222c27.83-17.709 54.435 7.686 54.435 7.686s27.82-27.196 66.702-14.369c10.612 3.502 18.581 9.06 24.541 15.121 38.623-14.69 61.738-6.196 70.587-1.288 7.072-6.475 18.139-11.435 35.091-8.355 41.638 7.564 36.842 42.288 36.842 42.288s14.87-6.901 26.526 5.024 4.73 31.772 4.73 31.772H33.028s-1.302-19.295 14.443-27.184" transform="translate(0 22)"/>
        <path fill="#2053AF" d="M33 224c.664 1.467 3.006 3.82 10.64 6.31 14.768 4.818 50.666 1.187 54.176 10.083 3.834 9.713-24.46 6.975-24.136 18.316.276 9.64 19.518 9.29 41.208 9.29h243.143c17.566 0 14.387-8.405 11.9-12.231-3.611-5.555-2.023-10.682 13.783-11.39 15.344-.688 26.581-1.279 34.954-1.279 22.333 0 17.95-11.628 35.35-11.628 9.63 0 20.928-3.278 23.982-7.471H33z"/>
        <g transform="translate(368.223)">
            <path fill="#0B339B" d="M78.812 30.716c.546 0 .988.442.988.988v8.54a.988.988 0 0 1-.988.989V30.716zM1.921 30.716a.823.823 0 0 0-.823.823v8.87c0 .455.369.824.823.824V30.716zM1.921 19.03a.823.823 0 0 0-.823.824v3.862c0 .455.369.823.823.823V19.03zM1.921 43.57a.823.823 0 0 0-.823.823v8.87c0 .455.369.823.823.823V43.57z"/>
            <path fill="url(#b)" d="M11.757.128h57.239c5.523 0 10 4.477 10 10v139.294c0 5.522-4.477 10-10 10h-57.24c-5.522 0-10-4.478-10-10V10.128c0-5.523 4.478-10 10-10z"/>
            <path fill="url(#c)" d="M11.403 1.836H69.35a8 8 0 0 1 8 8V149.79a8 8 0 0 1-8 8H11.403a8 8 0 0 1-8-8V9.836a8 8 0 0 1 8-8z"/>
            <ellipse cx="26.948" cy="10.016" fill="#0B339B" rx="1.153" ry="1.169"/>
            <ellipse cx="40.367" cy="149.656" fill="#022057" rx="5.186" ry="5.258"/>
            <path fill="url(#d)" d="M6.073 18.26h69.171v122.57H6.073z"/>
            <rect width="13.995" height="1.169" x="33.369" y="9.348" fill="#0B339B" rx=".584"/>
        </g>
        <path fill="url(#e)" d="M113.55 117.078c-2.25 5.003-3.51 8.841-3.777 11.514-.403 4.01 1.453 3.231 6.118-1.475 4.666-4.706 6.611-8.134 4.666-11.396-1.297-2.175-3.563-3.396-6.798-3.664l-.21 5.021z" transform="translate(333)"/>
        <path fill="url(#f)" d="M119.154 114.368c-.689-.186-1.535-.016-2.532.73-2.169 1.622-4.23 5.134-6.187 10.537-.176 0-.348 0-.514-.002.613-2.329 1.686-5.2 3.22-8.612l.21-5.021c2.524.209 4.459.998 5.803 2.368z" transform="translate(333)"/>
        <path fill="url(#e)" d="M112.02 96.568c-1.908 4.845-3.39 9.188-4.446 13.03-1.584 5.764 1.277 12.338 4.748 7.826 3.47-4.512 8.276-10.874 9.567-14.911 1.29-4.037 1.08-8.033-2.946-10.214-2.684-1.454-4.991-.03-6.922 4.27z" transform="translate(333)"/>
        <path fill="url(#f)" d="M122.286 96.961c-.982-2.175-3.266-2.017-6.854.475-4.122 2.862-6.971 7.83-8.548 14.903.015-1.04.156-2.126.446-3.184 1.056-3.843 2.539-8.186 4.447-13.03 1.931-4.3 4.239-5.724 6.922-4.27 2.272 1.23 3.329 3.039 3.587 5.106z" transform="translate(333)"/>
        <path fill="url(#e)" d="M71.956 204.21c.128-8.13.487-13.87 1.078-17.218.559-1.4 1.369-2.4 2.43-3 2.493-1.406 16.181-6.291 24.018-24.596H53.353c-.981-2.974-2.081-7.144-3.299-10.931-2.958-9.2-7.124-17.445-12.498-24.737-.976-3.792-.74-10.068.704-18.829 2.168-13.14 3.306-17.85-.704-27.966-4.01-10.114-9.165-9.55-10.56-1.3-1.395 8.252-4.724 17.453-8.776 32.24-4.05 14.787-3.013 20.326-2.935 34.193.051 9.244.722 25.09-3.282 47.537l-8.657 34.36h69.233c-.145-31.765-.774-10.165-.623-19.753zM114.49 52.276c5.954-4.313 9.994-6.696 12.12-7.15 3.191-.682 4.918 2.866.357 11.117-3.041 5.501-6.91 10.71-11.608 15.625 4.923 4.073 8.028 8.212 9.318 12.42 1.934 6.31-14.528 16.698-17.555 17.543-3.027.846-4.185-6.841.351-13.42 3.024-4.384 5.363-7.437 7.017-9.158V52.276z" transform="translate(333)"/>
        <path fill="url(#f)" d="M126.828 45.043c-3.712 1.668-10.14 9.585-11.283 14.205-.944 3.816-.956 7.956-.036 12.421l-.15.157c3.618 2.993 6.254 6.023 7.91 9.089-2.787-2.982-8.7.425-13.524 5.624-3.45 3.719-5.161 7.821-5.132 12.308l-.06.038c-.396-2.685.344-6.779 2.92-10.515 3.024-4.385 5.363-7.438 7.017-9.159V52.234c5.954-4.313 9.994-6.696 12.12-7.15.074-.016.146-.03.218-.04z" transform="translate(333)"/>
        <path fill="url(#g)" d="M7.954 192.348l64.92 7.628V224H0z" transform="translate(333)"/>
        <g>
            <path fill="url(#h)" d="M6.772 0h229.37a6.772 6.772 0 0 1 6.773 6.772v163.663H0V6.772A6.772 6.772 0 0 1 6.772 0z" transform="translate(118.506 53)"/>
            <path fill="url(#i)" d="M8.33 6.087h226.255a2.257 2.257 0 0 1 2.257 2.257v143.83H6.072V8.344A2.257 2.257 0 0 1 8.33 6.087z" transform="translate(118.506 53)"/>
            <g>
                <path fill="url(#j)" d="M88.627 7.304h205.3c-4.81 4.052-21.933 4.829-42.558 4.868v.002H41.229v-.005C21.202 12.098 4.708 11.269 0 7.304h88.627z" transform="translate(93 212.478)"/>
                <path fill="url(#k)" d="M0 0h293.927v7.304H0z" transform="translate(93 212.478)"/>
                <path fill="#2662CF" d="M210.814 212.478h58.3a3.652 3.652 0 0 1-3.653 3.652h-50.995a3.652 3.652 0 0 1-3.652-3.652z"/>
            </g>
        </g>
        <g fill-rule="nonzero" transform="translate(384 55)">
            <ellipse cx="24.291" cy="24.348" fill="#FFF" rx="24.291" ry="24.348"/>
            <path fill="#04A" d="M15.077 40.949c.053-.93.927-1.66 1.987-1.66H31.52c1.061-.002 1.936.73 1.987 1.66H15.077z"/>
            <path fill="url(#l)" d="M8.935 42.213c0 .385.025.77.072 1.152 8.913 7.108 21.656 7.108 30.57 0 .046-.382.07-.767.071-1.152v-1.818H8.935v1.818z"/>
            <path fill="#003CC1" d="M20.103 37.075h8.935v3.874h-8.935z"/>
            <rect width="6.143" height="7.194" x="37.973" y="20.474" fill="url(#m)" rx="3.071"/>
            <rect width="6.143" height="7.194" x="5.026" y="20.474" fill="url(#m)" rx="3.071"/>
            <path fill="url(#m)" d="M40.765 23.936c0 8.94-7.377 14.246-16.474 14.246-9.096 0-16.473-5.326-16.473-14.246 0-8.92 7.373-16.189 16.473-16.189 9.1 0 16.474 7.246 16.474 16.19z"/>
            <path fill="url(#f)" d="M39.648 23.348c0 8.614-6.75 13.727-15.077 13.727-8.328 0-15.078-5.125-15.078-13.727 0-8.601 6.75-15.601 15.078-15.601 8.327 0 15.077 6.984 15.077 15.601z"/>
            <path fill="#1D6DCC" d="M36.298 22.219c0 5.852-5.376 9.323-12.007 9.323-6.63 0-12.006-3.459-12.006-9.323 0-5.864 5.376-10.598 12.006-10.598s12.007 4.753 12.007 10.598z"/>
            <path fill="#F4FAFF" d="M36.298 21.628c0 5.528-5.376 8.807-12.007 8.807-6.63 0-12.006-3.28-12.006-8.807 0-5.528 5.376-10.007 12.006-10.007S36.298 16.1 36.298 21.628z"/>
            <path fill="#FFF" d="M33.424 19.736c-.558 2.834-3.73 3.982-7.231 3.325-3.502-.658-6.011-2.872-5.454-5.706.558-2.833 3.874-4.594 7.36-3.937 3.485.658 5.887 3.503 5.325 6.318z"/>
            <path fill="#24282D" d="M19.545 22.964c0 1.07-.875 1.937-1.955 1.937a1.946 1.946 0 0 1-1.954-1.937c0-1.07.875-1.936 1.954-1.936 1.08 0 1.955.867 1.955 1.936z"/>
            <ellipse cx="31.551" cy="22.964" fill="#24282D" rx="1.954" ry="1.937"/>
            <path fill="#24282D" d="M24.569 28.775c-1.572 0-2.79-.803-2.79-1.809 0-.223.197-.405.44-.405s.44.182.44.405c0 .543.892 1.017 1.91 1.017 1.018 0 1.914-.474 1.914-1.017 0-.223.197-.405.44-.405s.44.182.44.405c0 1.006-1.226 1.809-2.794 1.809z"/>
            <path fill="url(#f)" d="M14.52 41.22c0 2.379.916 4.672 2.567 6.423a25.198 25.198 0 0 0 14.413 0 9.366 9.366 0 0 0 2.564-6.424v-.824H14.519v.824z"/>
            <rect width="1.675" height="5.534" x="19.545" y="42.055" fill="#2053AF" rx=".838" transform="rotate(47.42 20.383 44.822)"/>
            <rect width="1.675" height="5.534" x="23.454" y="42.055" fill="#2053AF" rx=".838" transform="rotate(47.32 24.291 44.822)"/>
            <rect width="1.675" height="5.534" x="27.363" y="42.055" fill="#2053AF" rx=".838" transform="rotate(47.32 28.2 44.822)"/>
        </g>
        <g fill-rule="nonzero" transform="translate(316)">
            <path fill="url(#f)" d="M19.402 9.913H52.27c10.677 0 19.332 8.743 19.332 19.528 0 6.899-2.23 12.53-7.582 16.008a7.721 7.721 0 0 0 1.157 7.321s-5.673-1.183-6.97-4.745a19.06 19.06 0 0 1-5.965.958H19.375C8.687 48.952.03 40.208 0 29.413.061 18.63 8.728 9.92 19.402 9.913z"/>
            <rect width="33.82" height="4.3" x="18.219" y="26.957" fill="#FFF" rx="1.78"/>
            <path fill="url(#g)" d="M168.734 0h-38.627c-12.55 0-22.722 10.276-22.722 22.951 0 8.118 2.63 14.725 8.92 18.82a9.06 9.06 0 0 1-1.362 8.613s6.673-1.39 8.168-5.569a22.513 22.513 0 0 0 6.996 1.087l38.65.06c12.546-.032 22.717-10.279 22.782-22.95C191.506 10.307 181.311.02 168.734 0z"/>
            <rect width="33.82" height="4.3" x="123.174" y="20.696" fill="#FFF" rx="1.78"/>
            <rect width="14.686" height="4.3" x="159.611" y="20.696" fill="#FFF" rx="1.78" transform="rotate(180 166.954 22.846)"/>
        </g>
        <g transform="translate(136 134)">
            <rect width="77.733" height="48.696" y="12.174" fill="url(#g)" rx="4"/>
            <rect width="77.733" height="48.696" y="9.739" fill="#FFF" rx="4"/>
            <rect width="29.15" height="2.435" x="9.717" y="19.478" fill="#2173CC" fill-rule="nonzero" rx="1.217"/>
            <rect width="19.433" height="2.435" x="9.717" y="26.783" fill="#2173CC" fill-rule="nonzero" rx="1.217"/>
            <rect width="9.717" height="2.435" x="9.717" y="34.087" fill="#2173CC" fill-rule="nonzero" rx="1.217"/>
            <ellipse cx="68.016" cy="19.478" fill="url(#g)" rx="19.433" ry="19.478"/>
            <g fill="#FFF">
                <path d="M74.494 9.74H61.538a3.246 3.246 0 0 0-3.238 3.246V25.97a3.246 3.246 0 0 0 3.238 3.246h12.956a3.246 3.246 0 0 0 3.239-3.246V12.986a3.246 3.246 0 0 0-3.24-3.247m0 1.623c.892 0 1.62.73 1.62 1.624V25.97c0 .893-.728 1.623-1.62 1.623H61.539c-.89 0-1.619-.73-1.619-1.623V12.986c0-.893.729-1.624 1.62-1.624h12.955"/>
                <path d="M72.065 14.609h-8.097a.813.813 0 0 0-.81.811c0 .447.364.812.81.812h3.238v7.304c0 .447.365.812.81.812.446 0 .81-.365.81-.812v-7.304h3.239a.813.813 0 0 0 0-1.623"/>
            </g>
        </g>
        <g transform="translate(251 89)">
            <rect width="77.733" height="48.696" y="12.174" fill="url(#g)" rx="4"/>
            <rect width="77.733" height="48.696" y="9.739" fill="#FFF" rx="4"/>
            <rect width="29.15" height="2.435" x="9.717" y="19.478" fill="#2173CC" fill-rule="nonzero" rx="1.217"/>
            <rect width="19.433" height="2.435" x="9.717" y="26.783" fill="#2173CC" fill-rule="nonzero" rx="1.217"/>
            <rect width="9.717" height="2.435" x="9.717" y="34.087" fill="#2173CC" fill-rule="nonzero" rx="1.217"/>
            <ellipse cx="68.016" cy="19.478" fill="url(#g)" rx="19.433" ry="19.478"/>
            <g fill="#FFF">
                <path d="M74.494 27.594H61.538c-.89 0-1.619-.73-1.619-1.623v-2.878l5.743-5.037 10.451 6.735v1.18c0 .893-.728 1.623-1.62 1.623M61.539 11.362h12.956c.89 0 1.62.73 1.62 1.624v9.875l-10.089-6.5a.806.806 0 0 0-.972.072l-5.134 4.503v-7.95c0-.893.729-1.624 1.62-1.624M74.493 9.74H61.538a3.246 3.246 0 0 0-3.238 3.247V25.97a3.246 3.246 0 0 0 3.238 3.246h12.956a3.246 3.246 0 0 0 3.239-3.246V12.986a3.246 3.246 0 0 0-3.24-3.247"/>
                <path d="M72.065 14.609a.812.812 0 0 1 0 1.623.812.812 0 0 1 0-1.623m0 3.246a2.435 2.435 0 0 0 0-4.87 2.435 2.435 0 0 0 0 4.87"/>
            </g>
        </g>
        <g transform="translate(179 11)">
            <rect width="77.733" height="48.696" y="12.174" fill="url(#g)" rx="4"/>
            <rect width="77.733" height="48.696" y="9.739" fill="#FFF" rx="4"/>
            <rect width="29.15" height="2.435" x="9.717" y="19.478" fill="#2173CC" fill-rule="nonzero" rx="1.217"/>
            <rect width="19.433" height="2.435" x="9.717" y="26.783" fill="#2173CC" fill-rule="nonzero" rx="1.217"/>
            <rect width="9.717" height="2.435" x="9.717" y="34.087" fill="#2173CC" fill-rule="nonzero" rx="1.217"/>
            <ellipse cx="68.016" cy="19.478" fill="url(#g)" rx="19.433" ry="19.478"/>
            <g fill="#FFF">
                <path d="M74.494 9.74H61.538a3.246 3.246 0 0 0-3.238 3.246V25.97a3.246 3.246 0 0 0 3.238 3.246h12.956a3.246 3.246 0 0 0 3.239-3.246V12.986a3.246 3.246 0 0 0-3.24-3.247m0 1.623c.892 0 1.62.73 1.62 1.624V25.97c0 .893-.728 1.623-1.62 1.623H61.539c-.89 0-1.619-.73-1.619-1.623V12.986c0-.893.729-1.624 1.62-1.624h12.955"/>
                <path d="M64.777 17.855a1.623 1.623 0 0 0 0 3.246h6.478a1.623 1.623 0 0 0 0-3.246h-6.478zm6.478 4.87h-6.478a3.246 3.246 0 0 1-3.239-3.247 3.246 3.246 0 0 1 3.24-3.246h6.477a3.246 3.246 0 0 1 3.239 3.246 3.246 3.246 0 0 1-3.239 3.247z"/>
                <path d="M68.826 20.29h-1.62a.813.813 0 0 1-.81-.812c0-.446.365-.811.81-.811h1.62c.445 0 .81.365.81.811a.813.813 0 0 1-.81.812"/>
            </g>
        </g>
        <g transform="translate(57 69)">
            <rect width="77.733" height="48.696" y="12.174" fill="url(#g)" rx="4"/>
            <rect width="77.733" height="48.696" y="9.739" fill="#FFF" rx="4"/>
            <rect width="29.15" height="2.435" x="9.717" y="19.478" fill="#2173CC" fill-rule="nonzero" rx="1.217"/>
            <rect width="19.433" height="2.435" x="9.717" y="26.783" fill="#2173CC" fill-rule="nonzero" rx="1.217"/>
            <rect width="9.717" height="2.435" x="9.717" y="34.087" fill="#2173CC" fill-rule="nonzero" rx="1.217"/>
            <ellipse cx="68.016" cy="19.478" fill="url(#g)" rx="19.433" ry="19.478"/>
            <g fill="#FFF">
                <path d="M74.494 9.74H61.538a3.246 3.246 0 0 0-3.238 3.246V25.97a3.246 3.246 0 0 0 3.238 3.246h12.956a3.246 3.246 0 0 0 3.239-3.246V12.986a3.246 3.246 0 0 0-3.24-3.247m0 1.623c.892 0 1.62.73 1.62 1.624V25.97c0 .893-.728 1.623-1.62 1.623H61.539c-.89 0-1.619-.73-1.619-1.623V12.986c0-.893.729-1.624 1.62-1.624h12.955"/>
                <path d="M63.968 15.42h8.097c.445 0 .81-.365.81-.811a.813.813 0 0 0-.81-.812h-8.097a.813.813 0 0 0-.81.812c0 .446.364.811.81.811M72.065 17.043h-8.097a.813.813 0 0 0-.81.812c0 .446.364.812.81.812h8.097a.813.813 0 0 0 0-1.623M72.065 20.29h-8.097a.813.813 0 0 0-.81.811c0 .447.364.812.81.812h8.097a.813.813 0 0 0 0-1.623M68.826 23.536h-4.858a.813.813 0 0 0-.81.812c0 .446.364.811.81.811h4.858c.445 0 .81-.365.81-.811a.813.813 0 0 0-.81-.812"/>
            </g>
        </g>
        <g>
            <g transform="translate(38 241)">
                <mask id="o" fill="#fff">
                    <use xlink:href="#n"/>
                </mask>
                <path fill="#19428C" d="M49.694 1.963c.123 1.638-10.9 3.702-24.623 4.61C11.348 7.484.124 6.892 0 5.254c-.123-1.637 10.901-3.7 24.624-4.61 13.722-.908 24.946-.317 25.07 1.32" mask="url(#o)"/>
            </g>
            <path fill="#99180B" d="M71.806 243h-1.591s-3.582-6.375-3.184-15l5.969.75s-2.785 7.125-1.194 14.25M63 228.096s-3.195 6.22-3.195 13.904h-1.598s-4.483-16.14 3.83-26L63 228.096zM77 228.096s3.195 6.22 3.195 13.904h1.598s4.483-16.14-3.83-26L77 228.096z"/>
            <path fill="#EF2F1B" d="M63 223.522L62.362 216c-8.85 9.86-4.077 26-4.077 26h.597c-.5-5.2-.206-12.673 4.118-18.478"/>
            <path fill="url(#p)" d="M32.077 0c3.716 0 12.387 18.831 7.432 52.873 0 0-7.432 2.535-14.864 0 0 0-2.63-14.037-1.239-27.523C24.741 12.41 28.65 0 32.076 0" transform="translate(38 175)"/>
            <path fill="#EF2F1B" d="M68.435 227.874s-1.788-14.037-.842-27.524c.717-10.23 2.528-20.122 4.407-23.82-.784-1.012-1.517-1.53-2.119-1.53-3.354 0-7.178 12.41-8.484 25.35-1.36 13.487 1.212 27.524 1.212 27.524 3.295 1.149 6.588 1.255 9.206 1.03a10.541 10.541 0 0 1-3.38-1.03"/>
            <path fill="#F6F7F8" d="M73 196a3 3 0 1 1-6 0 3 3 0 0 1 6 0M73 219a3 3 0 1 1-6 0 3 3 0 0 1 6 0M73 208a3 3 0 1 1-6 0 3 3 0 0 1 6 0"/>
        </g>
    </g>
</svg>
