<svg xmlns="http://www.w3.org/2000/svg" width="106" height="106" viewBox="0 0 106 106">
    <defs>
        <linearGradient id="a" x1="80.322%" x2="24.59%" y1="78.569%" y2="20.459%">
            <stop offset="0%" stop-color="#001B8A"/>
            <stop offset="47.525%" stop-color="#003CC1"/>
            <stop offset="100%" stop-color="#2A90FF"/>
        </linearGradient>
        <linearGradient id="b" x1="50%" x2="50%" y1="12.17%" y2="87.219%">
            <stop offset="0%" stop-color="#D4EDFF"/>
            <stop offset="100%" stop-color="#5098E0"/>
        </linearGradient>
        <linearGradient id="c" x1="101.25%" x2="0%" y1="100%" y2="0%">
            <stop offset="0%" stop-color="#001B8A"/>
            <stop offset="47.525%" stop-color="#003CC1"/>
            <stop offset="100%" stop-color="#2A90FF"/>
        </linearGradient>
    </defs>
    <g fill="none" fill-rule="evenodd">
        <path fill="#F6F7F8" d="M-1659-2790H373V560h-2032z"/>
        <g>
            <circle cx="62" cy="62" r="44" fill="url(#a)" fill-rule="nonzero"/>
            <g fill="url(#b)" transform="translate(40 37)">
                <path fill-rule="nonzero" d="M22 4.308c-4.786 0-8.667 3.857-8.667 8.615v10.77h17.334v-10.77c0-4.758-3.88-8.615-8.667-8.615zM22 0c7.18 0 13 5.786 13 12.923V28H9V12.923C9 5.786 14.82 0 22 0z"/>
                <rect width="44" height="34" y="16" rx="4"/>
            </g>
            <g fill="url(#c)" fill-rule="nonzero" transform="translate(49 67)">
                <circle cx="3" cy="3" r="3"/>
                <circle cx="13" cy="3" r="3"/>
                <circle cx="23" cy="3" r="3"/>
            </g>
            <path fill="#7FBCFF" fill-rule="nonzero" d="M21.924 0C34.116 0 44 9.79 44 21.865c0 7.734-2.556 14.029-8.668 17.93A8.496 8.496 0 0 0 36.657 48s-6.483-1.323-7.936-5.305a22.27 22.27 0 0 1-6.797 1.036l.21.057C9.945 43.757.064 33.995 0 21.923.032 9.819 9.937.019 22.157 0h-.233z"/>
            <path fill="#FFF" d="M19 28a.996.996 0 0 1-.78-.375l-4-5a1 1 0 1 1 1.56-1.25l3.376 4.219 9.22-7.375a1 1 0 0 1 1.248 1.562l-10 8A.998.998 0 0 1 19 28"/>
        </g>
    </g>
</svg>
